^C:\USERS\KEVIN\DOCUMENTS\KEVIN'S DOCUMENTS\HIGH SCHOOL\GRADE 12\SEMESTER 2\COMPUTER SCIENCE 12\PCP\ICS4U-PCP\SOLARSYSTEM\SOLARSYSTEM\RELEASE\SOLARSYSTEM.OBJ|C:\USERS\KEVIN\DOCUMENTS\KEVIN'S DOCUMENTS\HIGH SCHOOL\GRADE 12\SEMESTER 2\COMPUTER SCIENCE 12\PCP\ICS4U-PCP\SOLARSYSTEM\SOLARSYSTEM\RELEASE\STDAFX.OBJ
C:\WINDOWS\GLOBALIZATION\SORTING\SORTDEFAULT.NLS
C:\SFML-2.3.2\LIB\SFML-GRAPHICS.LIB
C:\SFML-2.3.2\LIB\SFML-WINDOW.LIB
C:\SFML-2.3.2\LIB\SFML-AUDIO.LIB
C:\SFML-2.3.2\LIB\SFML-NETWORK.LIB
C:\SFML-2.3.2\LIB\SFML-SYSTEM.LIB
C:\PROGRAM FILES (X86)\WINDOWS KITS\8.1\LIB\WINV6.3\UM\X86\KERNEL32.LIB
C:\PROGRAM FILES (X86)\WINDOWS KITS\8.1\LIB\WINV6.3\UM\X86\USER32.LIB
C:\PROGRAM FILES (X86)\WINDOWS KITS\8.1\LIB\WINV6.3\UM\X86\GDI32.LIB
C:\PROGRAM FILES (X86)\WINDOWS KITS\8.1\LIB\WINV6.3\UM\X86\WINSPOOL.LIB
C:\PROGRAM FILES (X86)\WINDOWS KITS\8.1\LIB\WINV6.3\UM\X86\COMDLG32.LIB
C:\PROGRAM FILES (X86)\WINDOWS KITS\8.1\LIB\WINV6.3\UM\X86\ADVAPI32.LIB
C:\PROGRAM FILES (X86)\WINDOWS KITS\8.1\LIB\WINV6.3\UM\X86\SHELL32.LIB
C:\PROGRAM FILES (X86)\WINDOWS KITS\8.1\LIB\WINV6.3\UM\X86\OLE32.LIB
C:\PROGRAM FILES (X86)\WINDOWS KITS\8.1\LIB\WINV6.3\UM\X86\OLEAUT32.LIB
C:\PROGRAM FILES (X86)\WINDOWS KITS\8.1\LIB\WINV6.3\UM\X86\UUID.LIB
C:\PROGRAM FILES (X86)\WINDOWS KITS\8.1\LIB\WINV6.3\UM\X86\ODBC32.LIB
C:\PROGRAM FILES (X86)\WINDOWS KITS\8.1\LIB\WINV6.3\UM\X86\ODBCCP32.LIB
C:\USERS\KEVIN\DOCUMENTS\KEVIN'S DOCUMENTS\HIGH SCHOOL\GRADE 12\SEMESTER 2\COMPUTER SCIENCE 12\PCP\ICS4U-PCP\SOLARSYSTEM\SOLARSYSTEM\RELEASE\STDAFX.OBJ
C:\USERS\KEVIN\DOCUMENTS\KEVIN'S DOCUMENTS\HIGH SCHOOL\GRADE 12\SEMESTER 2\COMPUTER SCIENCE 12\PCP\ICS4U-PCP\SOLARSYSTEM\SOLARSYSTEM\RELEASE\SOLARSYSTEM.OBJ
C:\PROGRAM FILES (X86)\MICROSOFT VISUAL STUDIO 14.0\VC\BIN\C2.DLL
C:\PROGRAM FILES (X86)\MICROSOFT VISUAL STUDIO 14.0\VC\LIB\MSVCRT.LIB
C:\PROGRAM FILES (X86)\MICROSOFT VISUAL STUDIO 14.0\VC\LIB\OLDNAMES.LIB
C:\PROGRAM FILES (X86)\MICROSOFT VISUAL STUDIO 14.0\VC\LIB\MSVCPRT.LIB
C:\PROGRAM FILES (X86)\MICROSOFT VISUAL STUDIO 14.0\VC\LIB\VCRUNTIME.LIB
C:\PROGRAM FILES (X86)\WINDOWS KITS\10\LIB\10.0.10240.0\UCRT\X86\UCRT.LIB
C:\PROGRAM FILES (X86)\MICROSOFT VISUAL STUDIO 14.0\VC\BIN\1033\LINKUI.DLL
C:\USERS\KEVIN\DOCUMENTS\KEVIN'S DOCUMENTS\HIGH SCHOOL\GRADE 12\SEMESTER 2\COMPUTER SCIENCE 12\PCP\ICS4U-PCP\SOLARSYSTEM\RELEASE\SOLARSYSTEM.IPDB
C:\USERS\KEVIN\DOCUMENTS\KEVIN'S DOCUMENTS\HIGH SCHOOL\GRADE 12\SEMESTER 2\COMPUTER SCIENCE 12\PCP\ICS4U-PCP\SOLARSYSTEM\RELEASE\SOLARSYSTEM.IOBJ
C:\PROGRAM FILES (X86)\WINDOWS KITS\8.1\BIN\X86\RC.EXE
C:\PROGRAM FILES (X86)\MICROSOFT VISUAL STUDIO 14.0\VC\BIN\CVTRES.EXE
C:\WINDOWS\SYSTEM32\TZRES.DLL
