^C:\USERS\KEVIN\DOCUMENTS\VISUAL STUDIO 2015\PROJECTS\APP_PRE_ALPHA\APP_PRE_ALPHA\PCH.CPP
/c /I"C:\USERS\KEVIN\DOCUMENTS\VISUAL STUDIO 2015\PROJECTS\APP_PRE_ALPHA\APP_PRE_ALPHA\\" /I"GENERATED FILES\\" /IRELEASE\ /Zi /ZW /ZW:nostdlib /nologo /W3 /WX- /sdl /O2 /Oi /Oy- /GL /D _UNICODE /D UNICODE /D WINAPI_FAMILY=WINAPI_FAMILY_APP /D __WRL_NO_DEFAULT_LIB__ /Gm- /EHsc /MD /GS /Gy /fp:precise /Zc:wchar_t /Zc:forScope /Zc:inline /Yc"pch.h" /Fp"RELEASE\APP_PRE_ALPHA.PCH" /Fo"RELEASE\\" /Fd"RELEASE\VC140.PDB" /Gd /TP /wd4453 /wd28204 /FU"C:\PROGRAM FILES (X86)\MICROSOFT VISUAL STUDIO 14.0\VC\LIB\STORE\REFERENCES\PLATFORM.WINMD" /FU"C:\PROGRAM FILES (X86)\WINDOWS KITS\10\REFERENCES\WINDOWS.APPLICATIONMODEL.CALLS.CALLSVOIPCONTRACT\1.0.0.0\WINDOWS.APPLICATIONMODEL.CALLS.CALLSVOIPCONTRACT.WINMD" /FU"C:\PROGRAM FILES (X86)\WINDOWS KITS\10\REFERENCES\WINDOWS.DEVICES.PRINTERS.PRINTERSCONTRACT\1.0.0.0\WINDOWS.DEVICES.PRINTERS.PRINTERSCONTRACT.WINMD" /FU"C:\PROGRAM FILES (X86)\WINDOWS KITS\10\REFERENCES\WINDOWS.FOUNDATION.FOUNDATIONCONTRACT\1.0.0.0\WINDOWS.FOUNDATION.FOUNDATIONCONTRACT.WINMD" /FU"C:\PROGRAM FILES (X86)\WINDOWS KITS\10\REFERENCES\WINDOWS.FOUNDATION.UNIVERSALAPICONTRACT\2.0.0.0\WINDOWS.FOUNDATION.UNIVERSALAPICONTRACT.WINMD" /FU"C:\PROGRAM FILES (X86)\WINDOWS KITS\10\REFERENCES\WINDOWS.GRAPHICS.PRINTING3D.PRINTING3DCONTRACT\2.0.0.0\WINDOWS.GRAPHICS.PRINTING3D.PRINTING3DCONTRACT.WINMD" /FU"C:\PROGRAM FILES (X86)\WINDOWS KITS\10\REFERENCES\WINDOWS.NETWORKING.CONNECTIVITY.WWANCONTRACT\1.0.0.0\WINDOWS.NETWORKING.CONNECTIVITY.WWANCONTRACT.WINMD" /analyze- /bigobj  C:\USERS\KEVIN\DOCUMENTS\VISUAL STUDIO 2015\PROJECTS\APP_PRE_ALPHA\APP_PRE_ALPHA\PCH.CPP
^C:\USERS\KEVIN\DOCUMENTS\VISUAL STUDIO 2015\PROJECTS\APP_PRE_ALPHA\APP_PRE_ALPHA\GENERATED FILES\XAMLTYPEINFO.IMPL.G.CPP
/c /I"C:\USERS\KEVIN\DOCUMENTS\VISUAL STUDIO 2015\PROJECTS\APP_PRE_ALPHA\APP_PRE_ALPHA\\" /I"GENERATED FILES\\" /IRELEASE\ /Zi /ZW /ZW:nostdlib /nologo /W3 /WX- /sdl /O2 /Oi /Oy- /GL /D _UNICODE /D UNICODE /D WINAPI_FAMILY=WINAPI_FAMILY_APP /D __WRL_NO_DEFAULT_LIB__ /Gm- /EHsc /MD /GS /Gy /fp:precise /Zc:wchar_t /Zc:forScope /Zc:inline /Yu"pch.h" /Fp"RELEASE\APP_PRE_ALPHA.PCH" /Fo"RELEASE\\" /Fd"RELEASE\VC140.PDB" /Gd /TP /wd4453 /wd28204 /FU"C:\PROGRAM FILES (X86)\MICROSOFT VISUAL STUDIO 14.0\VC\LIB\STORE\REFERENCES\PLATFORM.WINMD" /FU"C:\PROGRAM FILES (X86)\WINDOWS KITS\10\REFERENCES\WINDOWS.APPLICATIONMODEL.CALLS.CALLSVOIPCONTRACT\1.0.0.0\WINDOWS.APPLICATIONMODEL.CALLS.CALLSVOIPCONTRACT.WINMD" /FU"C:\PROGRAM FILES (X86)\WINDOWS KITS\10\REFERENCES\WINDOWS.DEVICES.PRINTERS.PRINTERSCONTRACT\1.0.0.0\WINDOWS.DEVICES.PRINTERS.PRINTERSCONTRACT.WINMD" /FU"C:\PROGRAM FILES (X86)\WINDOWS KITS\10\REFERENCES\WINDOWS.FOUNDATION.FOUNDATIONCONTRACT\1.0.0.0\WINDOWS.FOUNDATION.FOUNDATIONCONTRACT.WINMD" /FU"C:\PROGRAM FILES (X86)\WINDOWS KITS\10\REFERENCES\WINDOWS.FOUNDATION.UNIVERSALAPICONTRACT\2.0.0.0\WINDOWS.FOUNDATION.UNIVERSALAPICONTRACT.WINMD" /FU"C:\PROGRAM FILES (X86)\WINDOWS KITS\10\REFERENCES\WINDOWS.GRAPHICS.PRINTING3D.PRINTING3DCONTRACT\2.0.0.0\WINDOWS.GRAPHICS.PRINTING3D.PRINTING3DCONTRACT.WINMD" /FU"C:\PROGRAM FILES (X86)\WINDOWS KITS\10\REFERENCES\WINDOWS.NETWORKING.CONNECTIVITY.WWANCONTRACT\1.0.0.0\WINDOWS.NETWORKING.CONNECTIVITY.WWANCONTRACT.WINMD" /analyze- /bigobj  C:\USERS\KEVIN\DOCUMENTS\VISUAL STUDIO 2015\PROJECTS\APP_PRE_ALPHA\APP_PRE_ALPHA\GENERATED FILES\XAMLTYPEINFO.IMPL.G.CPP
^C:\USERS\KEVIN\DOCUMENTS\VISUAL STUDIO 2015\PROJECTS\APP_PRE_ALPHA\APP_PRE_ALPHA\APP.XAML.CPP
/c /I"C:\USERS\KEVIN\DOCUMENTS\VISUAL STUDIO 2015\PROJECTS\APP_PRE_ALPHA\APP_PRE_ALPHA\\" /I"GENERATED FILES\\" /IRELEASE\ /Zi /ZW /ZW:nostdlib /nologo /W3 /WX- /sdl /O2 /Oi /Oy- /GL /D _UNICODE /D UNICODE /D WINAPI_FAMILY=WINAPI_FAMILY_APP /D __WRL_NO_DEFAULT_LIB__ /Gm- /EHsc /MD /GS /Gy /fp:precise /Zc:wchar_t /Zc:forScope /Zc:inline /Yu"pch.h" /Fp"RELEASE\APP_PRE_ALPHA.PCH" /Fo"RELEASE\\" /Fd"RELEASE\VC140.PDB" /Gd /TP /wd4453 /wd28204 /FU"C:\PROGRAM FILES (X86)\MICROSOFT VISUAL STUDIO 14.0\VC\LIB\STORE\REFERENCES\PLATFORM.WINMD" /FU"C:\PROGRAM FILES (X86)\WINDOWS KITS\10\REFERENCES\WINDOWS.APPLICATIONMODEL.CALLS.CALLSVOIPCONTRACT\1.0.0.0\WINDOWS.APPLICATIONMODEL.CALLS.CALLSVOIPCONTRACT.WINMD" /FU"C:\PROGRAM FILES (X86)\WINDOWS KITS\10\REFERENCES\WINDOWS.DEVICES.PRINTERS.PRINTERSCONTRACT\1.0.0.0\WINDOWS.DEVICES.PRINTERS.PRINTERSCONTRACT.WINMD" /FU"C:\PROGRAM FILES (X86)\WINDOWS KITS\10\REFERENCES\WINDOWS.FOUNDATION.FOUNDATIONCONTRACT\1.0.0.0\WINDOWS.FOUNDATION.FOUNDATIONCONTRACT.WINMD" /FU"C:\PROGRAM FILES (X86)\WINDOWS KITS\10\REFERENCES\WINDOWS.FOUNDATION.UNIVERSALAPICONTRACT\2.0.0.0\WINDOWS.FOUNDATION.UNIVERSALAPICONTRACT.WINMD" /FU"C:\PROGRAM FILES (X86)\WINDOWS KITS\10\REFERENCES\WINDOWS.GRAPHICS.PRINTING3D.PRINTING3DCONTRACT\2.0.0.0\WINDOWS.GRAPHICS.PRINTING3D.PRINTING3DCONTRACT.WINMD" /FU"C:\PROGRAM FILES (X86)\WINDOWS KITS\10\REFERENCES\WINDOWS.NETWORKING.CONNECTIVITY.WWANCONTRACT\1.0.0.0\WINDOWS.NETWORKING.CONNECTIVITY.WWANCONTRACT.WINMD" /analyze- /bigobj  C:\USERS\KEVIN\DOCUMENTS\VISUAL STUDIO 2015\PROJECTS\APP_PRE_ALPHA\APP_PRE_ALPHA\APP.XAML.CPP
^C:\USERS\KEVIN\DOCUMENTS\VISUAL STUDIO 2015\PROJECTS\APP_PRE_ALPHA\APP_PRE_ALPHA\BLANKPAGE.XAML.CPP
/c /I"C:\USERS\KEVIN\DOCUMENTS\VISUAL STUDIO 2015\PROJECTS\APP_PRE_ALPHA\APP_PRE_ALPHA\\" /I"GENERATED FILES\\" /IRELEASE\ /Zi /ZW /ZW:nostdlib /nologo /W3 /WX- /sdl /O2 /Oi /Oy- /GL /D _UNICODE /D UNICODE /D WINAPI_FAMILY=WINAPI_FAMILY_APP /D __WRL_NO_DEFAULT_LIB__ /Gm- /EHsc /MD /GS /Gy /fp:precise /Zc:wchar_t /Zc:forScope /Zc:inline /Yu"pch.h" /Fp"RELEASE\APP_PRE_ALPHA.PCH" /Fo"RELEASE\\" /Fd"RELEASE\VC140.PDB" /Gd /TP /wd4453 /wd28204 /FU"C:\PROGRAM FILES (X86)\MICROSOFT VISUAL STUDIO 14.0\VC\LIB\STORE\REFERENCES\PLATFORM.WINMD" /FU"C:\PROGRAM FILES (X86)\WINDOWS KITS\10\REFERENCES\WINDOWS.APPLICATIONMODEL.CALLS.CALLSVOIPCONTRACT\1.0.0.0\WINDOWS.APPLICATIONMODEL.CALLS.CALLSVOIPCONTRACT.WINMD" /FU"C:\PROGRAM FILES (X86)\WINDOWS KITS\10\REFERENCES\WINDOWS.DEVICES.PRINTERS.PRINTERSCONTRACT\1.0.0.0\WINDOWS.DEVICES.PRINTERS.PRINTERSCONTRACT.WINMD" /FU"C:\PROGRAM FILES (X86)\WINDOWS KITS\10\REFERENCES\WINDOWS.FOUNDATION.FOUNDATIONCONTRACT\1.0.0.0\WINDOWS.FOUNDATION.FOUNDATIONCONTRACT.WINMD" /FU"C:\PROGRAM FILES (X86)\WINDOWS KITS\10\REFERENCES\WINDOWS.FOUNDATION.UNIVERSALAPICONTRACT\2.0.0.0\WINDOWS.FOUNDATION.UNIVERSALAPICONTRACT.WINMD" /FU"C:\PROGRAM FILES (X86)\WINDOWS KITS\10\REFERENCES\WINDOWS.GRAPHICS.PRINTING3D.PRINTING3DCONTRACT\2.0.0.0\WINDOWS.GRAPHICS.PRINTING3D.PRINTING3DCONTRACT.WINMD" /FU"C:\PROGRAM FILES (X86)\WINDOWS KITS\10\REFERENCES\WINDOWS.NETWORKING.CONNECTIVITY.WWANCONTRACT\1.0.0.0\WINDOWS.NETWORKING.CONNECTIVITY.WWANCONTRACT.WINMD" /analyze- /bigobj  C:\USERS\KEVIN\DOCUMENTS\VISUAL STUDIO 2015\PROJECTS\APP_PRE_ALPHA\APP_PRE_ALPHA\BLANKPAGE.XAML.CPP
^C:\USERS\KEVIN\DOCUMENTS\VISUAL STUDIO 2015\PROJECTS\APP_PRE_ALPHA\APP_PRE_ALPHA\MAINPAGE.XAML.CPP
/c /I"C:\USERS\KEVIN\DOCUMENTS\VISUAL STUDIO 2015\PROJECTS\APP_PRE_ALPHA\APP_PRE_ALPHA\\" /I"GENERATED FILES\\" /IRELEASE\ /Zi /ZW /ZW:nostdlib /nologo /W3 /WX- /sdl /O2 /Oi /Oy- /GL /D _UNICODE /D UNICODE /D WINAPI_FAMILY=WINAPI_FAMILY_APP /D __WRL_NO_DEFAULT_LIB__ /Gm- /EHsc /MD /GS /Gy /fp:precise /Zc:wchar_t /Zc:forScope /Zc:inline /Yu"pch.h" /Fp"RELEASE\APP_PRE_ALPHA.PCH" /Fo"RELEASE\\" /Fd"RELEASE\VC140.PDB" /Gd /TP /wd4453 /wd28204 /FU"C:\PROGRAM FILES (X86)\MICROSOFT VISUAL STUDIO 14.0\VC\LIB\STORE\REFERENCES\PLATFORM.WINMD" /FU"C:\PROGRAM FILES (X86)\WINDOWS KITS\10\REFERENCES\WINDOWS.APPLICATIONMODEL.CALLS.CALLSVOIPCONTRACT\1.0.0.0\WINDOWS.APPLICATIONMODEL.CALLS.CALLSVOIPCONTRACT.WINMD" /FU"C:\PROGRAM FILES (X86)\WINDOWS KITS\10\REFERENCES\WINDOWS.DEVICES.PRINTERS.PRINTERSCONTRACT\1.0.0.0\WINDOWS.DEVICES.PRINTERS.PRINTERSCONTRACT.WINMD" /FU"C:\PROGRAM FILES (X86)\WINDOWS KITS\10\REFERENCES\WINDOWS.FOUNDATION.FOUNDATIONCONTRACT\1.0.0.0\WINDOWS.FOUNDATION.FOUNDATIONCONTRACT.WINMD" /FU"C:\PROGRAM FILES (X86)\WINDOWS KITS\10\REFERENCES\WINDOWS.FOUNDATION.UNIVERSALAPICONTRACT\2.0.0.0\WINDOWS.FOUNDATION.UNIVERSALAPICONTRACT.WINMD" /FU"C:\PROGRAM FILES (X86)\WINDOWS KITS\10\REFERENCES\WINDOWS.GRAPHICS.PRINTING3D.PRINTING3DCONTRACT\2.0.0.0\WINDOWS.GRAPHICS.PRINTING3D.PRINTING3DCONTRACT.WINMD" /FU"C:\PROGRAM FILES (X86)\WINDOWS KITS\10\REFERENCES\WINDOWS.NETWORKING.CONNECTIVITY.WWANCONTRACT\1.0.0.0\WINDOWS.NETWORKING.CONNECTIVITY.WWANCONTRACT.WINMD" /analyze- /bigobj  C:\USERS\KEVIN\DOCUMENTS\VISUAL STUDIO 2015\PROJECTS\APP_PRE_ALPHA\APP_PRE_ALPHA\MAINPAGE.XAML.CPP
^C:\USERS\KEVIN\DOCUMENTS\VISUAL STUDIO 2015\PROJECTS\APP_PRE_ALPHA\APP_PRE_ALPHA\GENERATED FILES\XAMLTYPEINFO.G.CPP
/c /I"C:\USERS\KEVIN\DOCUMENTS\VISUAL STUDIO 2015\PROJECTS\APP_PRE_ALPHA\APP_PRE_ALPHA\\" /I"GENERATED FILES\\" /IRELEASE\ /Zi /ZW /ZW:nostdlib /nologo /W3 /WX- /sdl /O2 /Oi /Oy- /GL /D _UNICODE /D UNICODE /D WINAPI_FAMILY=WINAPI_FAMILY_APP /D __WRL_NO_DEFAULT_LIB__ /Gm- /EHsc /MD /GS /Gy /fp:precise /Zc:wchar_t /Zc:forScope /Zc:inline /Yu"pch.h" /Fp"RELEASE\APP_PRE_ALPHA.PCH" /Fo"RELEASE\\" /Fd"RELEASE\VC140.PDB" /Gd /TP /wd4453 /wd28204 /FU"C:\PROGRAM FILES (X86)\MICROSOFT VISUAL STUDIO 14.0\VC\LIB\STORE\REFERENCES\PLATFORM.WINMD" /FU"C:\PROGRAM FILES (X86)\WINDOWS KITS\10\REFERENCES\WINDOWS.APPLICATIONMODEL.CALLS.CALLSVOIPCONTRACT\1.0.0.0\WINDOWS.APPLICATIONMODEL.CALLS.CALLSVOIPCONTRACT.WINMD" /FU"C:\PROGRAM FILES (X86)\WINDOWS KITS\10\REFERENCES\WINDOWS.DEVICES.PRINTERS.PRINTERSCONTRACT\1.0.0.0\WINDOWS.DEVICES.PRINTERS.PRINTERSCONTRACT.WINMD" /FU"C:\PROGRAM FILES (X86)\WINDOWS KITS\10\REFERENCES\WINDOWS.FOUNDATION.FOUNDATIONCONTRACT\1.0.0.0\WINDOWS.FOUNDATION.FOUNDATIONCONTRACT.WINMD" /FU"C:\PROGRAM FILES (X86)\WINDOWS KITS\10\REFERENCES\WINDOWS.FOUNDATION.UNIVERSALAPICONTRACT\2.0.0.0\WINDOWS.FOUNDATION.UNIVERSALAPICONTRACT.WINMD" /FU"C:\PROGRAM FILES (X86)\WINDOWS KITS\10\REFERENCES\WINDOWS.GRAPHICS.PRINTING3D.PRINTING3DCONTRACT\2.0.0.0\WINDOWS.GRAPHICS.PRINTING3D.PRINTING3DCONTRACT.WINMD" /FU"C:\PROGRAM FILES (X86)\WINDOWS KITS\10\REFERENCES\WINDOWS.NETWORKING.CONNECTIVITY.WWANCONTRACT\1.0.0.0\WINDOWS.NETWORKING.CONNECTIVITY.WWANCONTRACT.WINMD" /analyze- /bigobj  C:\USERS\KEVIN\DOCUMENTS\VISUAL STUDIO 2015\PROJECTS\APP_PRE_ALPHA\APP_PRE_ALPHA\GENERATED FILES\XAMLTYPEINFO.G.CPP
^C:\USERS\KEVIN\DOCUMENTS\KEVIN'S DOCUMENTS\HIGH SCHOOL\GRADE 12\SEMESTER 2\COMPUTER SCIENCE 12\PCP\ICS4U-PCP\APP_PRE_ALPHA\APP_PRE_ALPHA\PCH.CPP
/c /I"C:\USERS\KEVIN\DOCUMENTS\KEVIN'S DOCUMENTS\HIGH SCHOOL\GRADE 12\SEMESTER 2\COMPUTER SCIENCE 12\PCP\ICS4U-PCP\APP_PRE_ALPHA\APP_PRE_ALPHA\\" /I"GENERATED FILES\\" /IRELEASE\ /Zi /ZW /ZW:nostdlib /nologo /W3 /WX- /sdl /O2 /Oi /Oy- /GL /D _UNICODE /D UNICODE /D WINAPI_FAMILY=WINAPI_FAMILY_APP /D __WRL_NO_DEFAULT_LIB__ /Gm- /EHsc /MD /GS /Gy /fp:precise /Zc:wchar_t /Zc:forScope /Zc:inline /Yc"pch.h" /Fp"RELEASE\APP_PRE_ALPHA.PCH" /Fo"RELEASE\\" /Fd"RELEASE\VC140.PDB" /Gd /TP /wd4453 /wd28204 /FU"C:\PROGRAM FILES (X86)\MICROSOFT VISUAL STUDIO 14.0\VC\LIB\STORE\REFERENCES\PLATFORM.WINMD" /FU"C:\PROGRAM FILES (X86)\WINDOWS KITS\10\REFERENCES\WINDOWS.APPLICATIONMODEL.CALLS.CALLSVOIPCONTRACT\1.0.0.0\WINDOWS.APPLICATIONMODEL.CALLS.CALLSVOIPCONTRACT.WINMD" /FU"C:\PROGRAM FILES (X86)\WINDOWS KITS\10\REFERENCES\WINDOWS.DEVICES.PRINTERS.PRINTERSCONTRACT\1.0.0.0\WINDOWS.DEVICES.PRINTERS.PRINTERSCONTRACT.WINMD" /FU"C:\PROGRAM FILES (X86)\WINDOWS KITS\10\REFERENCES\WINDOWS.FOUNDATION.FOUNDATIONCONTRACT\1.0.0.0\WINDOWS.FOUNDATION.FOUNDATIONCONTRACT.WINMD" /FU"C:\PROGRAM FILES (X86)\WINDOWS KITS\10\REFERENCES\WINDOWS.FOUNDATION.UNIVERSALAPICONTRACT\2.0.0.0\WINDOWS.FOUNDATION.UNIVERSALAPICONTRACT.WINMD" /FU"C:\PROGRAM FILES (X86)\WINDOWS KITS\10\REFERENCES\WINDOWS.GRAPHICS.PRINTING3D.PRINTING3DCONTRACT\2.0.0.0\WINDOWS.GRAPHICS.PRINTING3D.PRINTING3DCONTRACT.WINMD" /FU"C:\PROGRAM FILES (X86)\WINDOWS KITS\10\REFERENCES\WINDOWS.NETWORKING.CONNECTIVITY.WWANCONTRACT\1.0.0.0\WINDOWS.NETWORKING.CONNECTIVITY.WWANCONTRACT.WINMD" /analyze- /bigobj  C:\USERS\KEVIN\DOCUMENTS\KEVIN'S DOCUMENTS\HIGH SCHOOL\GRADE 12\SEMESTER 2\COMPUTER SCIENCE 12\PCP\ICS4U-PCP\APP_PRE_ALPHA\APP_PRE_ALPHA\PCH.CPP
^C:\USERS\KEVIN\DOCUMENTS\KEVIN'S DOCUMENTS\HIGH SCHOOL\GRADE 12\SEMESTER 2\COMPUTER SCIENCE 12\PCP\ICS4U-PCP\APP_PRE_ALPHA\APP_PRE_ALPHA\APP.XAML.CPP
/c /I"C:\USERS\KEVIN\DOCUMENTS\KEVIN'S DOCUMENTS\HIGH SCHOOL\GRADE 12\SEMESTER 2\COMPUTER SCIENCE 12\PCP\ICS4U-PCP\APP_PRE_ALPHA\APP_PRE_ALPHA\\" /I"GENERATED FILES\\" /IRELEASE\ /Zi /ZW /ZW:nostdlib /nologo /W3 /WX- /sdl /O2 /Oi /Oy- /GL /D _UNICODE /D UNICODE /D WINAPI_FAMILY=WINAPI_FAMILY_APP /D __WRL_NO_DEFAULT_LIB__ /Gm- /EHsc /MD /GS /Gy /fp:precise /Zc:wchar_t /Zc:forScope /Zc:inline /Yu"pch.h" /Fp"RELEASE\APP_PRE_ALPHA.PCH" /Fo"RELEASE\\" /Fd"RELEASE\VC140.PDB" /Gd /TP /wd4453 /wd28204 /FU"C:\PROGRAM FILES (X86)\MICROSOFT VISUAL STUDIO 14.0\VC\LIB\STORE\REFERENCES\PLATFORM.WINMD" /FU"C:\PROGRAM FILES (X86)\WINDOWS KITS\10\REFERENCES\WINDOWS.APPLICATIONMODEL.CALLS.CALLSVOIPCONTRACT\1.0.0.0\WINDOWS.APPLICATIONMODEL.CALLS.CALLSVOIPCONTRACT.WINMD" /FU"C:\PROGRAM FILES (X86)\WINDOWS KITS\10\REFERENCES\WINDOWS.DEVICES.PRINTERS.PRINTERSCONTRACT\1.0.0.0\WINDOWS.DEVICES.PRINTERS.PRINTERSCONTRACT.WINMD" /FU"C:\PROGRAM FILES (X86)\WINDOWS KITS\10\REFERENCES\WINDOWS.FOUNDATION.FOUNDATIONCONTRACT\1.0.0.0\WINDOWS.FOUNDATION.FOUNDATIONCONTRACT.WINMD" /FU"C:\PROGRAM FILES (X86)\WINDOWS KITS\10\REFERENCES\WINDOWS.FOUNDATION.UNIVERSALAPICONTRACT\2.0.0.0\WINDOWS.FOUNDATION.UNIVERSALAPICONTRACT.WINMD" /FU"C:\PROGRAM FILES (X86)\WINDOWS KITS\10\REFERENCES\WINDOWS.GRAPHICS.PRINTING3D.PRINTING3DCONTRACT\2.0.0.0\WINDOWS.GRAPHICS.PRINTING3D.PRINTING3DCONTRACT.WINMD" /FU"C:\PROGRAM FILES (X86)\WINDOWS KITS\10\REFERENCES\WINDOWS.NETWORKING.CONNECTIVITY.WWANCONTRACT\1.0.0.0\WINDOWS.NETWORKING.CONNECTIVITY.WWANCONTRACT.WINMD" /analyze- /bigobj  C:\USERS\KEVIN\DOCUMENTS\KEVIN'S DOCUMENTS\HIGH SCHOOL\GRADE 12\SEMESTER 2\COMPUTER SCIENCE 12\PCP\ICS4U-PCP\APP_PRE_ALPHA\APP_PRE_ALPHA\APP.XAML.CPP
^C:\USERS\KEVIN\DOCUMENTS\KEVIN'S DOCUMENTS\HIGH SCHOOL\GRADE 12\SEMESTER 2\COMPUTER SCIENCE 12\PCP\ICS4U-PCP\APP_PRE_ALPHA\APP_PRE_ALPHA\BLANKPAGE.XAML.CPP
/c /I"C:\USERS\KEVIN\DOCUMENTS\KEVIN'S DOCUMENTS\HIGH SCHOOL\GRADE 12\SEMESTER 2\COMPUTER SCIENCE 12\PCP\ICS4U-PCP\APP_PRE_ALPHA\APP_PRE_ALPHA\\" /I"GENERATED FILES\\" /IRELEASE\ /Zi /ZW /ZW:nostdlib /nologo /W3 /WX- /sdl /O2 /Oi /Oy- /GL /D _UNICODE /D UNICODE /D WINAPI_FAMILY=WINAPI_FAMILY_APP /D __WRL_NO_DEFAULT_LIB__ /Gm- /EHsc /MD /GS /Gy /fp:precise /Zc:wchar_t /Zc:forScope /Zc:inline /Yu"pch.h" /Fp"RELEASE\APP_PRE_ALPHA.PCH" /Fo"RELEASE\\" /Fd"RELEASE\VC140.PDB" /Gd /TP /wd4453 /wd28204 /FU"C:\PROGRAM FILES (X86)\MICROSOFT VISUAL STUDIO 14.0\VC\LIB\STORE\REFERENCES\PLATFORM.WINMD" /FU"C:\PROGRAM FILES (X86)\WINDOWS KITS\10\REFERENCES\WINDOWS.APPLICATIONMODEL.CALLS.CALLSVOIPCONTRACT\1.0.0.0\WINDOWS.APPLICATIONMODEL.CALLS.CALLSVOIPCONTRACT.WINMD" /FU"C:\PROGRAM FILES (X86)\WINDOWS KITS\10\REFERENCES\WINDOWS.DEVICES.PRINTERS.PRINTERSCONTRACT\1.0.0.0\WINDOWS.DEVICES.PRINTERS.PRINTERSCONTRACT.WINMD" /FU"C:\PROGRAM FILES (X86)\WINDOWS KITS\10\REFERENCES\WINDOWS.FOUNDATION.FOUNDATIONCONTRACT\1.0.0.0\WINDOWS.FOUNDATION.FOUNDATIONCONTRACT.WINMD" /FU"C:\PROGRAM FILES (X86)\WINDOWS KITS\10\REFERENCES\WINDOWS.FOUNDATION.UNIVERSALAPICONTRACT\2.0.0.0\WINDOWS.FOUNDATION.UNIVERSALAPICONTRACT.WINMD" /FU"C:\PROGRAM FILES (X86)\WINDOWS KITS\10\REFERENCES\WINDOWS.GRAPHICS.PRINTING3D.PRINTING3DCONTRACT\2.0.0.0\WINDOWS.GRAPHICS.PRINTING3D.PRINTING3DCONTRACT.WINMD" /FU"C:\PROGRAM FILES (X86)\WINDOWS KITS\10\REFERENCES\WINDOWS.NETWORKING.CONNECTIVITY.WWANCONTRACT\1.0.0.0\WINDOWS.NETWORKING.CONNECTIVITY.WWANCONTRACT.WINMD" /analyze- /bigobj  C:\USERS\KEVIN\DOCUMENTS\KEVIN'S DOCUMENTS\HIGH SCHOOL\GRADE 12\SEMESTER 2\COMPUTER SCIENCE 12\PCP\ICS4U-PCP\APP_PRE_ALPHA\APP_PRE_ALPHA\BLANKPAGE.XAML.CPP
^C:\USERS\KEVIN\DOCUMENTS\KEVIN'S DOCUMENTS\HIGH SCHOOL\GRADE 12\SEMESTER 2\COMPUTER SCIENCE 12\PCP\ICS4U-PCP\APP_PRE_ALPHA\APP_PRE_ALPHA\MAINPAGE.XAML.CPP
/c /I"C:\USERS\KEVIN\DOCUMENTS\KEVIN'S DOCUMENTS\HIGH SCHOOL\GRADE 12\SEMESTER 2\COMPUTER SCIENCE 12\PCP\ICS4U-PCP\APP_PRE_ALPHA\APP_PRE_ALPHA\\" /I"GENERATED FILES\\" /IRELEASE\ /Zi /ZW /ZW:nostdlib /nologo /W3 /WX- /sdl /O2 /Oi /Oy- /GL /D _UNICODE /D UNICODE /D WINAPI_FAMILY=WINAPI_FAMILY_APP /D __WRL_NO_DEFAULT_LIB__ /Gm- /EHsc /MD /GS /Gy /fp:precise /Zc:wchar_t /Zc:forScope /Zc:inline /Yu"pch.h" /Fp"RELEASE\APP_PRE_ALPHA.PCH" /Fo"RELEASE\\" /Fd"RELEASE\VC140.PDB" /Gd /TP /wd4453 /wd28204 /FU"C:\PROGRAM FILES (X86)\MICROSOFT VISUAL STUDIO 14.0\VC\LIB\STORE\REFERENCES\PLATFORM.WINMD" /FU"C:\PROGRAM FILES (X86)\WINDOWS KITS\10\REFERENCES\WINDOWS.APPLICATIONMODEL.CALLS.CALLSVOIPCONTRACT\1.0.0.0\WINDOWS.APPLICATIONMODEL.CALLS.CALLSVOIPCONTRACT.WINMD" /FU"C:\PROGRAM FILES (X86)\WINDOWS KITS\10\REFERENCES\WINDOWS.DEVICES.PRINTERS.PRINTERSCONTRACT\1.0.0.0\WINDOWS.DEVICES.PRINTERS.PRINTERSCONTRACT.WINMD" /FU"C:\PROGRAM FILES (X86)\WINDOWS KITS\10\REFERENCES\WINDOWS.FOUNDATION.FOUNDATIONCONTRACT\1.0.0.0\WINDOWS.FOUNDATION.FOUNDATIONCONTRACT.WINMD" /FU"C:\PROGRAM FILES (X86)\WINDOWS KITS\10\REFERENCES\WINDOWS.FOUNDATION.UNIVERSALAPICONTRACT\2.0.0.0\WINDOWS.FOUNDATION.UNIVERSALAPICONTRACT.WINMD" /FU"C:\PROGRAM FILES (X86)\WINDOWS KITS\10\REFERENCES\WINDOWS.GRAPHICS.PRINTING3D.PRINTING3DCONTRACT\2.0.0.0\WINDOWS.GRAPHICS.PRINTING3D.PRINTING3DCONTRACT.WINMD" /FU"C:\PROGRAM FILES (X86)\WINDOWS KITS\10\REFERENCES\WINDOWS.NETWORKING.CONNECTIVITY.WWANCONTRACT\1.0.0.0\WINDOWS.NETWORKING.CONNECTIVITY.WWANCONTRACT.WINMD" /analyze- /bigobj  C:\USERS\KEVIN\DOCUMENTS\KEVIN'S DOCUMENTS\HIGH SCHOOL\GRADE 12\SEMESTER 2\COMPUTER SCIENCE 12\PCP\ICS4U-PCP\APP_PRE_ALPHA\APP_PRE_ALPHA\MAINPAGE.XAML.CPP
^C:\USERS\KEVIN\DOCUMENTS\KEVIN'S DOCUMENTS\HIGH SCHOOL\GRADE 12\SEMESTER 2\COMPUTER SCIENCE 12\PCP\ICS4U-PCP\APP_PRE_ALPHA\APP_PRE_ALPHA\GENERATED FILES\XAMLTYPEINFO.IMPL.G.CPP
/c /I"C:\USERS\KEVIN\DOCUMENTS\KEVIN'S DOCUMENTS\HIGH SCHOOL\GRADE 12\SEMESTER 2\COMPUTER SCIENCE 12\PCP\ICS4U-PCP\APP_PRE_ALPHA\APP_PRE_ALPHA\\" /I"GENERATED FILES\\" /IRELEASE\ /Zi /ZW /ZW:nostdlib /nologo /W3 /WX- /sdl /O2 /Oi /Oy- /GL /D _UNICODE /D UNICODE /D WINAPI_FAMILY=WINAPI_FAMILY_APP /D __WRL_NO_DEFAULT_LIB__ /Gm- /EHsc /MD /GS /Gy /fp:precise /Zc:wchar_t /Zc:forScope /Zc:inline /Yu"pch.h" /Fp"RELEASE\APP_PRE_ALPHA.PCH" /Fo"RELEASE\\" /Fd"RELEASE\VC140.PDB" /Gd /TP /wd4453 /wd28204 /FU"C:\PROGRAM FILES (X86)\MICROSOFT VISUAL STUDIO 14.0\VC\LIB\STORE\REFERENCES\PLATFORM.WINMD" /FU"C:\PROGRAM FILES (X86)\WINDOWS KITS\10\REFERENCES\WINDOWS.APPLICATIONMODEL.CALLS.CALLSVOIPCONTRACT\1.0.0.0\WINDOWS.APPLICATIONMODEL.CALLS.CALLSVOIPCONTRACT.WINMD" /FU"C:\PROGRAM FILES (X86)\WINDOWS KITS\10\REFERENCES\WINDOWS.DEVICES.PRINTERS.PRINTERSCONTRACT\1.0.0.0\WINDOWS.DEVICES.PRINTERS.PRINTERSCONTRACT.WINMD" /FU"C:\PROGRAM FILES (X86)\WINDOWS KITS\10\REFERENCES\WINDOWS.FOUNDATION.FOUNDATIONCONTRACT\1.0.0.0\WINDOWS.FOUNDATION.FOUNDATIONCONTRACT.WINMD" /FU"C:\PROGRAM FILES (X86)\WINDOWS KITS\10\REFERENCES\WINDOWS.FOUNDATION.UNIVERSALAPICONTRACT\2.0.0.0\WINDOWS.FOUNDATION.UNIVERSALAPICONTRACT.WINMD" /FU"C:\PROGRAM FILES (X86)\WINDOWS KITS\10\REFERENCES\WINDOWS.GRAPHICS.PRINTING3D.PRINTING3DCONTRACT\2.0.0.0\WINDOWS.GRAPHICS.PRINTING3D.PRINTING3DCONTRACT.WINMD" /FU"C:\PROGRAM FILES (X86)\WINDOWS KITS\10\REFERENCES\WINDOWS.NETWORKING.CONNECTIVITY.WWANCONTRACT\1.0.0.0\WINDOWS.NETWORKING.CONNECTIVITY.WWANCONTRACT.WINMD" /analyze- /bigobj  C:\USERS\KEVIN\DOCUMENTS\KEVIN'S DOCUMENTS\HIGH SCHOOL\GRADE 12\SEMESTER 2\COMPUTER SCIENCE 12\PCP\ICS4U-PCP\APP_PRE_ALPHA\APP_PRE_ALPHA\GENERATED FILES\XAMLTYPEINFO.IMPL.G.CPP
^C:\USERS\KEVIN\DOCUMENTS\KEVIN'S DOCUMENTS\HIGH SCHOOL\GRADE 12\SEMESTER 2\COMPUTER SCIENCE 12\PCP\ICS4U-PCP\APP_PRE_ALPHA\APP_PRE_ALPHA\GENERATED FILES\XAMLTYPEINFO.G.CPP
/c /I"C:\USERS\KEVIN\DOCUMENTS\KEVIN'S DOCUMENTS\HIGH SCHOOL\GRADE 12\SEMESTER 2\COMPUTER SCIENCE 12\PCP\ICS4U-PCP\APP_PRE_ALPHA\APP_PRE_ALPHA\\" /I"GENERATED FILES\\" /IRELEASE\ /Zi /ZW /ZW:nostdlib /nologo /W3 /WX- /sdl /O2 /Oi /Oy- /GL /D _UNICODE /D UNICODE /D WINAPI_FAMILY=WINAPI_FAMILY_APP /D __WRL_NO_DEFAULT_LIB__ /Gm- /EHsc /MD /GS /Gy /fp:precise /Zc:wchar_t /Zc:forScope /Zc:inline /Yu"pch.h" /Fp"RELEASE\APP_PRE_ALPHA.PCH" /Fo"RELEASE\\" /Fd"RELEASE\VC140.PDB" /Gd /TP /wd4453 /wd28204 /FU"C:\PROGRAM FILES (X86)\MICROSOFT VISUAL STUDIO 14.0\VC\LIB\STORE\REFERENCES\PLATFORM.WINMD" /FU"C:\PROGRAM FILES (X86)\WINDOWS KITS\10\REFERENCES\WINDOWS.APPLICATIONMODEL.CALLS.CALLSVOIPCONTRACT\1.0.0.0\WINDOWS.APPLICATIONMODEL.CALLS.CALLSVOIPCONTRACT.WINMD" /FU"C:\PROGRAM FILES (X86)\WINDOWS KITS\10\REFERENCES\WINDOWS.DEVICES.PRINTERS.PRINTERSCONTRACT\1.0.0.0\WINDOWS.DEVICES.PRINTERS.PRINTERSCONTRACT.WINMD" /FU"C:\PROGRAM FILES (X86)\WINDOWS KITS\10\REFERENCES\WINDOWS.FOUNDATION.FOUNDATIONCONTRACT\1.0.0.0\WINDOWS.FOUNDATION.FOUNDATIONCONTRACT.WINMD" /FU"C:\PROGRAM FILES (X86)\WINDOWS KITS\10\REFERENCES\WINDOWS.FOUNDATION.UNIVERSALAPICONTRACT\2.0.0.0\WINDOWS.FOUNDATION.UNIVERSALAPICONTRACT.WINMD" /FU"C:\PROGRAM FILES (X86)\WINDOWS KITS\10\REFERENCES\WINDOWS.GRAPHICS.PRINTING3D.PRINTING3DCONTRACT\2.0.0.0\WINDOWS.GRAPHICS.PRINTING3D.PRINTING3DCONTRACT.WINMD" /FU"C:\PROGRAM FILES (X86)\WINDOWS KITS\10\REFERENCES\WINDOWS.NETWORKING.CONNECTIVITY.WWANCONTRACT\1.0.0.0\WINDOWS.NETWORKING.CONNECTIVITY.WWANCONTRACT.WINMD" /analyze- /bigobj  C:\USERS\KEVIN\DOCUMENTS\KEVIN'S DOCUMENTS\HIGH SCHOOL\GRADE 12\SEMESTER 2\COMPUTER SCIENCE 12\PCP\ICS4U-PCP\APP_PRE_ALPHA\APP_PRE_ALPHA\GENERATED FILES\XAMLTYPEINFO.G.CPP
