^C:\USERS\KEVIN\DOCUMENTS\KEVIN'S DOCUMENTS\HIGH SCHOOL\GRADE 12\SEMESTER 2\COMPUTER SCIENCE 12\PCP\ICS4U-PCP\SOLARSYSTEM\SOLARSYSTEM\DEBUG\SOLARSYSTEM.OBJ|C:\USERS\KEVIN\DOCUMENTS\KEVIN'S DOCUMENTS\HIGH SCHOOL\GRADE 12\SEMESTER 2\COMPUTER SCIENCE 12\PCP\ICS4U-PCP\SOLARSYSTEM\SOLARSYSTEM\DEBUG\STDAFX.OBJ
C:\USERS\KEVIN\DOCUMENTS\KEVIN'S DOCUMENTS\HIGH SCHOOL\GRADE 12\SEMESTER 2\COMPUTER SCIENCE 12\PCP\ICS4U-PCP\SOLARSYSTEM\DEBUG\SOLARSYSTEM.ILK
C:\USERS\KEVIN\DOCUMENTS\KEVIN'S DOCUMENTS\HIGH SCHOOL\GRADE 12\SEMESTER 2\COMPUTER SCIENCE 12\PCP\ICS4U-PCP\SOLARSYSTEM\DEBUG\SOLARSYSTEM.EXE
C:\USERS\KEVIN\DOCUMENTS\KEVIN'S DOCUMENTS\HIGH SCHOOL\GRADE 12\SEMESTER 2\COMPUTER SCIENCE 12\PCP\ICS4U-PCP\SOLARSYSTEM\DEBUG\SOLARSYSTEM.PDB
