^C:\USERS\KEVIN\DOCUMENTS\KEVIN'S DOCUMENTS\HIGH SCHOOL\GRADE 12\SEMESTER 2\COMPUTER SCIENCE 12\PCP\ICS4U-PCP\SOLARSYSTEM3.0\SOLARSYSTEM3.0\RELEASE\SOLARSYSTEM3.0.OBJ|C:\USERS\KEVIN\DOCUMENTS\KEVIN'S DOCUMENTS\HIGH SCHOOL\GRADE 12\SEMESTER 2\COMPUTER SCIENCE 12\PCP\ICS4U-PCP\SOLARSYSTEM3.0\SOLARSYSTEM3.0\RELEASE\STDAFX.OBJ
C:\USERS\KEVIN\DOCUMENTS\KEVIN'S DOCUMENTS\HIGH SCHOOL\GRADE 12\SEMESTER 2\COMPUTER SCIENCE 12\PCP\ICS4U-PCP\SOLARSYSTEM3.0\RELEASE\SOLARSYSTEM3.0.EXE
C:\USERS\KEVIN\DOCUMENTS\KEVIN'S DOCUMENTS\HIGH SCHOOL\GRADE 12\SEMESTER 2\COMPUTER SCIENCE 12\PCP\ICS4U-PCP\SOLARSYSTEM3.0\RELEASE\SOLARSYSTEM3.0.IPDB
C:\USERS\KEVIN\DOCUMENTS\KEVIN'S DOCUMENTS\HIGH SCHOOL\GRADE 12\SEMESTER 2\COMPUTER SCIENCE 12\PCP\ICS4U-PCP\SOLARSYSTEM3.0\RELEASE\SOLARSYSTEM3.0.IOBJ
C:\USERS\KEVIN\DOCUMENTS\KEVIN'S DOCUMENTS\HIGH SCHOOL\GRADE 12\SEMESTER 2\COMPUTER SCIENCE 12\PCP\ICS4U-PCP\SOLARSYSTEM3.0\RELEASE\SOLARSYSTEM3.0.PDB
