^C:\USERS\KEVIN\DOCUMENTS\KEVIN'S DOCUMENTS\HIGH SCHOOL\GRADE 12\SEMESTER 2\COMPUTER SCIENCE 12\PCP\ICS4U-PCP\SOLARSYSTEM2.0\SOLARSYSTEM2.0\STDAFX.CPP
/c /I"C:\SFML-2.3.2\INCLUDE" /Zi /nologo /W3 /WX- /sdl /O2 /Oi /Oy- /GL /D WIN32 /D NDEBUG /D _CONSOLE /D _UNICODE /D UNICODE /Gm- /EHsc /MD /GS /Gy /fp:precise /Zc:wchar_t /Zc:forScope /Zc:inline /Yc"stdafx.h" /Fp"RELEASE\SOLARSYSTEM2.0.PCH" /Fo"RELEASE\\" /Fd"RELEASE\VC140.PDB" /Gd /TP /analyze- C:\USERS\KEVIN\DOCUMENTS\KEVIN'S DOCUMENTS\HIGH SCHOOL\GRADE 12\SEMESTER 2\COMPUTER SCIENCE 12\PCP\ICS4U-PCP\SOLARSYSTEM2.0\SOLARSYSTEM2.0\STDAFX.CPP
^C:\USERS\KEVIN\DOCUMENTS\KEVIN'S DOCUMENTS\HIGH SCHOOL\GRADE 12\SEMESTER 2\COMPUTER SCIENCE 12\PCP\ICS4U-PCP\SOLARSYSTEM2.0\SOLARSYSTEM2.0\SOLARSYSTEM2.0.CPP
/c /I"C:\SFML-2.3.2\INCLUDE" /Zi /nologo /W3 /WX- /sdl /O2 /Oi /Oy- /GL /D WIN32 /D NDEBUG /D _CONSOLE /D _UNICODE /D UNICODE /Gm- /EHsc /MD /GS /Gy /fp:precise /Zc:wchar_t /Zc:forScope /Zc:inline /Yu"stdafx.h" /Fp"RELEASE\SOLARSYSTEM2.0.PCH" /Fo"RELEASE\\" /Fd"RELEASE\VC140.PDB" /Gd /TP /analyze- C:\USERS\KEVIN\DOCUMENTS\KEVIN'S DOCUMENTS\HIGH SCHOOL\GRADE 12\SEMESTER 2\COMPUTER SCIENCE 12\PCP\ICS4U-PCP\SOLARSYSTEM2.0\SOLARSYSTEM2.0\SOLARSYSTEM2.0.CPP
