^C:\USERS\KEVIN\DOCUMENTS\KEVIN'S DOCUMENTS\HIGH SCHOOL\GRADE 12\SEMESTER 2\COMPUTER SCIENCE 12\PCP\ICS4U-PCP\SOLARSYSTEM2.0\SOLARSYSTEM2.0\RELEASE\SOLARSYSTEM2.0.OBJ|C:\USERS\KEVIN\DOCUMENTS\KEVIN'S DOCUMENTS\HIGH SCHOOL\GRADE 12\SEMESTER 2\COMPUTER SCIENCE 12\PCP\ICS4U-PCP\SOLARSYSTEM2.0\SOLARSYSTEM2.0\RELEASE\STDAFX.OBJ
C:\USERS\KEVIN\DOCUMENTS\KEVIN'S DOCUMENTS\HIGH SCHOOL\GRADE 12\SEMESTER 2\COMPUTER SCIENCE 12\PCP\ICS4U-PCP\SOLARSYSTEM2.0\RELEASE\SOLARSYSTEM2.0.EXE
C:\USERS\KEVIN\DOCUMENTS\KEVIN'S DOCUMENTS\HIGH SCHOOL\GRADE 12\SEMESTER 2\COMPUTER SCIENCE 12\PCP\ICS4U-PCP\SOLARSYSTEM2.0\RELEASE\SOLARSYSTEM2.0.IPDB
C:\USERS\KEVIN\DOCUMENTS\KEVIN'S DOCUMENTS\HIGH SCHOOL\GRADE 12\SEMESTER 2\COMPUTER SCIENCE 12\PCP\ICS4U-PCP\SOLARSYSTEM2.0\RELEASE\SOLARSYSTEM2.0.IOBJ
C:\USERS\KEVIN\DOCUMENTS\KEVIN'S DOCUMENTS\HIGH SCHOOL\GRADE 12\SEMESTER 2\COMPUTER SCIENCE 12\PCP\ICS4U-PCP\SOLARSYSTEM2.0\RELEASE\SOLARSYSTEM2.0.PDB
